Division,WeightClassKg,Place,Name,Team,BodyweightKg,Best3SquatKg,Best3BenchKg,Best3DeadliftKg,TotalKg,Equipment,Event,Sex
Boys,51.71,1,Brandon Parish,Galveston Ball,49.35,120.2,72.57,122.47,315.25,Single-ply,SBD,M
Boys,51.71,2,Sean Loyola,Stafford,50.53,104.33,43.09,129.27,276.69,Single-ply,SBD,M
Boys,51.71,3,Thomas Gray,Galveston Ball,51.17,86.18,63.5,115.67,265.35,Single-ply,SBD,M
Boys,55.79,1,Davion Clark,La Porte,55.52,136.08,74.84,127.01,337.93,Single-ply,SBD,M
Boys,55.79,2,Jeremy Lockett,La Marque,53.71,99.79,56.7,113.4,269.89,Single-ply,SBD,M
Boys,55.79,3,Alonzo Aechibald,La Marque,55.43,102.06,68.04,97.52,267.62,Single-ply,SBD,M
Boys,67.13,1,Sergio Vences,La Porte,60.06,142.88,74.84,147.42,365.14,Single-ply,SBD,M
Boys,67.13,2,Devin Allen,Hitchcock,60.06,102.06,72.57,142.88,317.51,Single-ply,SBD,M
Boys,59.87,3,Jesse Canell,Stafford,58.24,113.4,79.38,115.67,308.44,Single-ply,SBD,M
Boys,59.87,DQ,Ivan Sifuentes,Hitchcock,57.88,,,,,Single-ply,SBD,M
Boys,67.13,1,Deandre Swann,Galveston Ball,66.86,142.88,90.72,197.31,430.91,Single-ply,SBD,M
Boys,74.84,2,John Calhoun,Texas City,67.31,151.95,108.86,167.83,428.64,Single-ply,SBD,M
Boys,74.84,3,Austen Nesburg,Santa Fe,67.31,147.42,90.72,147.42,385.55,Single-ply,SBD,M
Boys,67.13,4,Vela Justin,La Porte,65.14,136.08,83.91,142.88,362.87,Single-ply,SBD,M
Boys,67.13,5,James McDaniel,La Porte,61.23,104.33,70.31,124.74,299.37,Single-ply,SBD,M
Boys,67.13,6,John Rosson,Santa Fe,66.04,97.52,63.5,127.01,288.03,Single-ply,SBD,M
Boys,74.84,1,Jeremy McNeal,La Porte,72.48,197.31,142.88,204.12,544.31,Single-ply,SBD,M
Boys,82.1,2,Robert Garcia #7,Santa Fe,75.02,181.44,92.99,204.12,478.54,Single-ply,SBD,M
Boys,74.84,3,Emmanuel Bankole,Stafford,71.12,170.1,81.65,170.1,421.84,Single-ply,SBD,M
Boys,74.84,4,Josh George,Hitchcock,73.75,149.69,95.25,174.63,419.57,Single-ply,SBD,M
Boys,74.84,5,Ernal Mayberry,Galveston Ball,68.67,147.42,102.06,145.15,394.63,Single-ply,SBD,M
Boys,74.84,6,Dwight Tucker,Pasadena Dobie,72.3,136.08,97.52,149.69,383.29,Single-ply,SBD,M
Boys,82.1,1,Scott Montez,La Porte,79.65,192.78,127.01,172.37,492.15,Single-ply,SBD,M
Boys,82.1,2,Anthony Messer,Texas City,81.37,176.9,108.86,199.58,485.34,Single-ply,SBD,M
Boys,82.1,3,Chris Garcia #12,Pasadena Dobie,79.29,165.56,124.74,190.51,480.81,Single-ply,SBD,M
Boys,82.1,4,Zach Sauers,Santa Fe,79.83,174.63,136.08,165.56,476.27,Single-ply,SBD,M
Boys,82.1,5,Floyd Simmons,La Marque,80.92,158.76,122.47,192.78,474,Single-ply,SBD,M
Boys,82.1,6,Joseph Valdez,Texas City,77.47,183.7,102.06,183.7,469.47,Single-ply,SBD,M
Boys,82.1,7,Christian Jackson,La Marque,77.11,172.37,97.52,181.44,451.32,Single-ply,SBD,M
Boys,82.1,8,Tony Combs,Hitchcock,77.66,154.22,97.52,185.97,437.72,Single-ply,SBD,M
Boys,82.1,9,Alcin Hammon,Hitchcock,78.83,147.42,108.86,174.63,430.91,Single-ply,SBD,M
Boys,82.1,10,Aaron Daly,Texas City,79.56,113.4,90.72,163.29,367.41,Single-ply,SBD,M
Boys,82.1,DQ,Barry Authenreith,Pasadena Dobie,77.02,,,,,Single-ply,SBD,M
Boys,89.81,1,Daniel Wilkerson,Santa Fe,85.87,238.14,183.7,272.16,694,Single-ply,SBD,M
Boys,99.79,2,Chris Hall,Santa Fe,90.04,231.33,183.7,226.8,641.83,Single-ply,SBD,M
Boys,89.81,3,Ryan Higgins,Texas City,86.82,190.51,95.25,199.58,485.34,Single-ply,SBD,M
Boys,89.81,4,Xavier Woodard,Stafford,89.09,179.17,120.2,183.7,483.08,Single-ply,SBD,M
Boys,89.81,5,Darian Hayes,Texas City,87.36,142.88,108.86,190.51,442.25,Single-ply,SBD,M
Boys,89.81,6,Chris Scott #5,Hitchcock,88.18,145.15,74.84,174.63,394.63,Single-ply,SBD,M
Boys,89.81,DQ,William Thomas,La Marque,86.09,,,,,Single-ply,SBD,M
Boys,99.79,1,Savon Caldwell,Texas City,93.98,247.21,113.4,229.06,589.67,Single-ply,SBD,M
Boys,99.79,2,Aaron Oats,Stafford,93.35,165.56,136.08,215.46,517.1,Single-ply,SBD,M
Boys,99.79,3,Michael Canada,Galveston Ball,96.8,197.31,122.47,195.04,514.83,Single-ply,SBD,M
Boys,99.79,4,Otis Johnson,Texas City,93.44,163.29,122.47,163.29,449.06,Single-ply,SBD,M
Boys,99.79,5,Jacob Reynoso,Pasadena Dobie,93.35,165.56,97.52,170.1,433.18,Single-ply,SBD,M
Boys,99.79,6,Kaleb Carr,Galveston Ball,93.35,142.88,77.11,158.76,378.75,Single-ply,SBD,M
Boys,99.79,DQ,Dj Sweeny,Santa Fe,94.85,,,,,Single-ply,SBD,M
Boys,109.77,1,Justin Rice,Pasadena Dobie,107.05,265.35,145.15,269.89,680.39,Single-ply,SBD,M
Boys,124.74,2,Tony Briones,La Porte,109.95,215.46,127.01,197.31,539.77,Single-ply,SBD,M
Boys,109.77,3,Darrien Lavergne,Pasadena Dobie,101.15,208.65,120.2,204.12,532.97,Single-ply,SBD,M
Boys,109.77,4,Adrian Crockett,Galveston Ball,100.06,190.51,106.59,204.12,501.22,Single-ply,SBD,M
Boys,109.77,5,Travis Gray,Santa Fe,103.33,158.76,124.74,172.37,455.86,Single-ply,SBD,M
Boys,109.77,DQ,Jeramy Hart,Hitchcock,105.32,,,,,Single-ply,SBD,M
Boys,124.74,1,Andrew Bletsch,Santa Fe,119.75,272.16,226.8,272.16,771.11,Single-ply,SBD,M
Boys,124.74,2,Lane Mauldin,Santa Fe,119.66,226.8,136.08,229.06,591.94,Single-ply,SBD,M
Boys,124.74,3,Corey Lee,La Porte,118.84,235.87,136.08,210.92,582.87,Single-ply,SBD,M
Boys,124.74,4,Mike Franklin,Texas City,116.3,204.12,122.47,204.12,530.7,Single-ply,SBD,M
Boys,124.74,5,Leland Brown,Galveston Ball,119.2,183.7,129.27,188.24,501.22,Single-ply,SBD,M
Boys,124.74,6,Josh Basquez,Pasadena Dobie,117.39,195.04,113.4,181.44,489.88,Single-ply,SBD,M
Boys,124.74,7,Nico Ortiz,Texas City,120.66,190.51,104.33,183.7,478.54,Single-ply,SBD,M
Boys,124.74+,1,Maurice Morris,La Porte,168.28,272.16,147.42,272.16,691.73,Single-ply,SBD,M
Boys,124.74+,2,Joe Brewer,La Porte,159.76,247.21,138.35,217.72,603.28,Single-ply,SBD,M
Boys,124.74+,3,Larry Smith,La Porte,160.93,242.67,154.22,183.7,580.6,Single-ply,SBD,M
Boys,124.74+,4,Luis Cavazos,Texas City,145.06,226.8,129.27,192.78,548.85,Single-ply,SBD,M
Boys,124.74+,5,Morgan Bacon,Galveston Ball,128,197.31,133.81,213.19,544.31,Single-ply,SBD,M
Boys,124.74+,6,Adley Lai,Stafford,141.25,199.58,102.06,215.46,517.1,Single-ply,SBD,M
Boys,124.74+,7,Gray Laskoskie,Hitchcock,139.8,167.83,122.47,181.44,471.74,Single-ply,SBD,M
Boys,124.74+,DQ,Eric Mills,Hitchcock,126.55,,,,,Single-ply,SBD,M
Boys,,NS,Brandon Boyd,La Marque,,,,,,Single-ply,SBD,M
Boys,,NS,Jacore Alridge,La Marque,,,,,,Single-ply,SBD,M
Boys,,NS,Ederado Gariba,La Marque,,,,,,Single-ply,SBD,M
Boys,,NS,Malcom Glover,Pasadena Dobie,,,,,,Single-ply,SBD,M
Boys,,NS,Mathew Walton,Santa Fe,,,,,,Single-ply,SBD,M
