,Name,State,Class,Weight,Age,SQ1,SQ2,SQ3,BP1,BP2,BP3,DL1,DL2,DL3,Total Kg,Dots Total,McC Total
,Women Raw  Powerlifting,,,Junior,,,,,,,,,,,,,
,75kg Jr 20-23,,,,,,,,,,,,,,,,
1,Erin Lapine,NH,75kg,72.52,23,102.5,112.5,120,72.5,80,90,142.5,152.5,160,370,366.928,
,,,,,,,,,,,,,,,,,
,Women Raw  Powerlifting,,,Open,,,,,,,,,,,,,
,75kg Open,,,,,,,,,,,,,,,,
1,Jaymie Piper,MA,75kg,73.2,34,180,185,-190,112.5,117.5,120,185,197.5,202.5,507.5,500.747,
2,Isabel Sherwood,MI,75kg,68.84,24,142.5,160,-167.5,82.5,92.5,95,160,175,182.5,437.5,446.616,
3,Briana Duval,MA,75kg,70.4,30,110,120,127.5,62.5,70,-77.5,135,145,155,352.5,355.334,
,,,,,,,,,,,,,,,,,
,82.5kg Open,,,,,,,,,,,,,,,,
1,Jessica Lawrence,VT,82.5kg,77.74,39,107.5,117.5,-125,52.5,57.5,-62.5,135,145,152.5,327.5,313.082,
,,,,,,,,,,,,,,,,,
,SHW Open,,,,,,,,,,,,,,,,
1,Jaimie Bourassa,NH,SHW,90.12,32,-122.5,122.5,-125,77.5,-82.5,-82.5,145,152.5,157.5,357.5,318.532,
,,,,,,,,,,,,,,,,,
,Women Raw  Powerlifting,,,Submaster,,,,,,,,,,,,,
,82.5kg Submaster,,,,,,,,,,,,,,,,
1,Jessica Lawrence,VT,82.5kg,77.74,39,107.5,117.5,-125,52.5,57.5,-62.5,135,145,152.5,327.5,313.082,
,,,,,,,,,,,,,,,,,
,Men Raw  Powerlifting,,,Junior,,,,,,,,,,,,,
,67.5kg Jr 16-17,,,,,,,,,,,,,,,,
1,Zach Dion,NH,67.5kg,66.08,17,142.5,152.5,160,92.5,100,-107.5,160,172.5,182.5,442.5,346.4,
,,,,,,,,,,,,,,,,,
,82.5kg Jr 18-19,,,,,,,,,,,,,,,,
1,Liam Francis,MA,82.5kg,81.96,19,220,232.5,-245,147.5,152.5,------,225,237.5,250,635,431.754,
,,,,,,,,,,,,,,,,,
,110kg Jr 20-23,,,,,,,,,,,,,,,,
1,Jakob Maurer,CT,110kg,108.96,22,227.5,240,-245,160,170,-172.5,280,-307.5,-307.5,690,410.138,
,,,,,,,,,,,,,,,,,
,Men Raw  Powerlifting,,,Open,,,,,,,,,,,,,
,82.5kg Open,,,,,,,,,,,,,,,,
1,Connor Feathers,NH,82.5kg,81.08,24,232.5,245,-250,160,167.5,-172.5,252.5,267.5,272.5,685,468.652,
2,Paul Lariviere,NH,82.5kg,80.78,56,180,-190,-190,125,130,-132.5,215,222.5,225.0,535,366.816,457.053
,,,,,,,,,,,,,,,,,
,90kg Open,,,,,,,,,,,,,,,,
1,William Littlefield,MA,90kg,89.36,32,247.5,-262.5,272.5,177.5,187.5,190,272.5,287.5,292.5,755,489.95,
2,Tyrell Sykes,VT,90kg,89.16,32,232.5,242.5,250,152.5,-162.5,162.5,265,280,290.0,702.5,456.401,
3,Jared Oteri,MA,90kg,85.52,26,222.5,227.5,-237.5,135,145,-155,240,-262.5,-262.5,612.5,406.733,
4,Johnny Loreti,MA,90kg,89.48,32,187.5,197.5,-205,-167.5,167.5,-172.5,200,212.5,217.5,582.5,377.75,
DQ,Luke Pelton,CT,90kg,89.3,29,-225,------,------,------,------,------,------,------,------,0,0,
,,,,,,,,,,,,,,,,,
,100kg Open,,,,,,,,,,,,,,,,
1,Nicholas Starke,MA,100kg,98.24,28,242.5,252.5,------,140,150,155,245,255,-262.5,662.5,410.967,
2,Ben Rivers,ME,100kg,92.76,28,195,210,-222.5,142.5,150,-160,227.5,240,-247.5,600,382.226,
,,,,,,,,,,,,,,,,,
,125kg Open,,,,,,,,,,,,,,,,
1,Tyler Alexander,CT,125kg,118.3,26,225,237.5,-245,175,185,-187.5,317.5,337.5,------,760,438.571,
2,Philip Craven,NH,125kg,119.2,57,235,-250,252.5,172.5,180,-182.5,255,270,277.5,710,408.67,518.194
,,,,,,,,,,,,,,,,,
,Men Raw  Powerlifting,,,Master,,,,,,,,,,,,,
,82.5kg Master 55-59,,,,,,,,,,,,,,,,
1,Paul Lariviere,NH,82.5kg,80.78,56,180,-190,-190,125,130,-132.5,215,222.5,225.0,535,366.816,457.053
,,,,,,,,,,,,,,,,,
,110kg Master 40-44,,,,,,,,,,,,,,,,
DQ,Patrick Lozzi,,110kg,109.9,42,195,207.5,-215,137.5,147.5,-155,-252.5,------,------,0,0,0
,,,,,,,,,,,,,,,,,
,125kg Master 55-59,,,,,,,,,,,,,,,,
1,Philip Craven,NH,125kg,119.2,57,235,-250,252.5,172.5,180,-182.5,255,270,277.5,710,408.67,518.194
,,,,,,,,,,,,,,,,,
,Men Classic Raw  Powerlifting,,,Open,,,,,,,,,,,,,
,90kg Open,,,,,,,,,,,,,,,,
1,Craig Macmillan,MA,90kg,86.6,30,272.5,295,317.5,147.5,162.5,-177.5,295,325,------,805,530.984,
,,,,,,,,,,,,,,,,,
,100kg Open,,,,,,,,,,,,,,,,
1,Christopher Preve,MA,100kg,99.4,46,-275,275,285,180,190,-196.5,290,302.5,310,785,484.446,517.388
2,Maximilian Sulmonte,MA,100kg,99.46,31,222.5,-235,-235,137.5,142.5,-147.5,225,237.5,-250,602.5,371.722,
,,,,,,,,,,,,,,,,,
,140kg Open,,,,,,,,,,,,,,,,
1,Harold Spetla,ME,140kg,135.8,31,250,290,320,180,-195,-195.0,295,330,-365,830,458.813,
,,,,,,,,,,,,,,,,,
,Men Classic Raw  Powerlifting,,,Master,,,,,,,,,,,,,
,100kg Master 45-49,,,,,,,,,,,,,,,,
1,Christopher Preve,MA,100kg,99.4,46,-275,275,285,180,190,-196.5,290,302.5,310,785,484.446,517.388
,,,,,,,,,,,,,,,,,
,Men Multi Ply Powerlifting,,,Open,,,,,,,,,,,,,
,75kg Open,,,,,,,,,,,,,,,,
1,Tyler O'Doherty,MA,75kg,74.42,27,137.5,-182.5,------,130,-140,------,257.5,-273,-273,525,378.528,
,,,,,,,,,,,,,,,,,
,Men Multi Ply Powerlifting,,,Master,,,,,,,,,,,,,
,110kg Master 40-44,,,,,,,,,,,,,,,,
DQ,Patrick Lozzi,,110kg,109.9,42,195,207.5,-215,137.5,147.5,-155,-252.5,------,------,0,0,0
,,,,,,,,,,,,,,,,,
,Men Raw  Bench Only,,,Open,,,,,,,,,,,,,
,82.5kg Open,,,,,,,,,,,,,,,,
1,Jordan Princenthal,FL,82.5kg,81.68,47,,,,182.5,197.5,-200,,,,197.5,134.549,145.582
,,,,,,,,,,,,,,,,,
,90kg Open,,,,,,,,,,,,,,,,
1,Johnny Loreti,MA,90kg,89.48,32,,,,-167.5,167.5,-172.5,,,,167.5,108.623,
,,,,,,,,,,,,,,,,,
,Men Raw  Bench Only,,,Master,,,,,,,,,,,,,
,82.5kg Master 45-49,,,,,,,,,,,,,,,,
1,Jordan Princenthal,FL,82.5kg,81.68,47,,,,182.5,197.5,-200,,,,197.5,134.549,145.582
,,,,,,,,,,,,,,,,,
,Men Multi Ply Deadlift Only,,,Open,,,,,,,,,,,,,
,75kg Open,,,,,,,,,,,,,,,,
1,Tyler O'Doherty,MA,75kg,74.42,27,,,,,,,257.5,-273,-273,257.5,185.659,
,,,,,,,,,,,,,,,,,
,Men Raw  Push-Pull,,,Master,,,,,,,,,,,,,
,SHW Master 40-44,,,,,,,,,,,,,,,,
1,Lyle Estell,NH,SHW,155,43,,,,-165,-175,182.5,155,182.5,192.5,375,199.907,105.8
,,,,,,,,,,,,,,,,,
,Best Lifters,,,,,,,,,,,,,Record Color Codes,,,
,Jaymie Piper,Raw Open Women PL,,,,,,,,,,,,State,,,
,William Littlefield,Raw Open Men PL,,,,,,,,,,,,,,,
,,,,,,,,,,,,,,,,,
,Meet Director:,Tyler Auclair,,,,,,,,,,,,,,,
,,,,,,,,,,,,,,,,,
,Referees,,,,,,,,,,,,,,,,
,National:,Tyler Auclair,,,,,,,,,,,,,,,
,State:,"Micah Deshaies, Stephanie Bennett, Connor Moore, Ann Hall",,,,,,,,,,,,,,,
,,,,,,,,,,,,,,,,,
,Spotter/Loaders:,"Ray Saraivia, Michel Lacroix, Wayne Nielson, Sophia Grace, CJ Houbre",,,,,,,,,,,,,,,
