Sex,WeightClassKg,EntryDate,Name,BirthDate,Country,Bench1Kg,Bench2Kg,Bench3Kg,Best3BenchKg,Bench4Kg,TotalKg,BodyweightKg,Event,Equipment,Division,Place
M,49,2020-02-05,Joao Maria Franca Junior,1995-10-20,Brazil,-145,145,-147,145,,145,48.35,B,Raw,Open,1
M,49,2020-02-05,Taye Don,1984-03-20,Nigeria,-135,-135,-140,,,,40.57,B,Raw,Open,DQ
M,49,2020-02-05,Muhammed Gbadamosi,2000-10-27,Nigeria,130,135,-140,135,,135,45.63,B,Raw,Open,2
M,49,2020-02-05,Yakubu Adesokan,1979-07-16,Nigeria,-140,-140,-140,,,,46.37,B,Raw,Open,DQ
M,49,2020-02-05,Peter Abiola,1980-08-14,Ghana,-80,80,-85,80,,80,39.09,B,Raw,Open,3
M,49,2020-02-05,Jeremia Ngungi Maringa,1991-10-12,Kenya,-105,-108,-108,,,,48.78,B,Raw,Open,DQ
M,49,2020-02-05,Arold Sheka Kamara,1996-12-05,,,,,,,,,B,Raw,Open,NS
M,54,2020-02-05,Roland Ezuruike,1976-05-05,Nigeria,166,-170,170,170,,170,52.31,B,Raw,Open,1
M,54,2020-02-05,Chibuzor Uchenna,2002-03-16,Nigeria,110,-115,-115,110,,110,52.85,B,Raw,Open,5
M,54,2020-02-05,Bruno Pinheiro Carra,1989-01-20,Brazil,162,165,-167,165,,165,53.34,B,Raw,Open,2
M,54,2020-02-05,Taha Adel Mohamed Abdelmajid,1987-06-08,Egypt,-163,163,-167,163,,163,53.78,B,Raw,Open,3
M,54,2020-02-05,Blessing Kayode,2004-02-22,Nigeria,-100,-100,-102,,,,52.27,B,Raw,Open,DQ
M,54,2020-02-05,Abimbola Osaro,1998-01-01,Nigeria,-135,135,-140,135,,135,52.86,B,Raw,Open,4
M,59,2020-02-06,Sherif Osman,1982-09-15,Egypt,193,197,-202,197,,197,58.58,B,Raw,Open,1
M,59,2020-02-06,Daniel Kankam,2001-09-18,Ghana,-85,-85,90,90,,90,54.32,B,Raw,Open,5
M,59,2020-02-06,Monday Harry,2000-10-05,Nigeria,-115,-115,-115,,,,57.68,B,Raw,Open,DQ
M,59,2020-02-06,Thomas Kure,1988-12-15,Nigeria,-177,177,187,187,,187,58.06,B,Raw,Open,2
M,59,2020-02-06,Olalekan Sulaimon Rufai,1988-05-02,Nigeria,,,,,,,58.74,B,Raw,Open,DQ
M,59,2020-02-06,Bakary Diallo,1975-12-14,Mali,-125,125,131,131,,131,56.41,B,Raw,Open,3
M,59,2020-02-06,Mohamed Lamine Traore,1988-12-15,Guinea,-75,-80,-85,,,,58.89,B,Raw,Open,DQ
M,59,2020-02-06,Isaac Obeng,1983-05-11,Ghana,-120,-120,130,130,,130,56.34,B,Raw,Open,4
M,59,2020-02-06,Ibrahim Dauda,1983-10-10,Nigeria,,,,,,,,B,Raw,Open,NS
M,65,2020-02-06,Abubakar Aliyu,2000-09-07,Nigeria,135,140,145,145,,145,60.51,B,Raw,Open,4
M,65,2020-02-06,Paul Kehinde,1988-07-07,Nigeria,185,194,-200,194,,194,64.59,B,Raw,Open,1
M,65,2020-02-06,Gabriel Magu Wanjiku,1987-06-14,Kenya,135,140,-150,140,,140,64.7,B,Raw,Open,5
M,65,2020-02-06,Mufutau Rasaq,1999-08-01,Nigeria,177,182,-190,182,,182,63.15,B,Raw,Open,2
M,65,2020-02-06,Abraheem Othman,1993-07-10,Libya,130,138,-140,138,,138,63.61,B,Raw,Open,6
M,65,2020-02-06,Adou Herve Ano,1983-05-30,Ivory Coast,160,165,-170,165,,165,63.34,B,Raw,Open,3
M,65,2020-02-06,Aliyu Muhammed,2000-08-05,Nigeria,-100,100,-104,100,,100,63.91,B,Raw,Open,7
M,72,2020-02-06,Desmond Nogosa Emuze,1999-03-01,Nigeria,,,,,,,66.38,B,Raw,Open,DQ
M,72,2020-02-06,Metwaly Ibrahim Mathna,1974-11-30,Egypt,-190,190,-194,190,,190,71.64,B,Raw,Open,3
M,72,2020-02-06,Mosaab Gharsalla,1990-04-27,Libya,-125,125,127,127,,127,71.79,B,Raw,Open,7
M,72,2020-02-06,Muhamed Nigo,1978-01-05,Uganda,-128,-130,-131,,,,70.85,B,Raw,Open,DQ
M,72,2020-02-06,Donato Telesca,1999-02-05,Italy,177,-183,-183,177,,177,71.51,B,Raw,Open,4
M,72,2020-02-06,Ogbonna Egwu,2002-01-11,Nigeria,90,105,110,110,,110,66.96,B,Raw,Open,8
M,72,2020-02-06,Nnamdi Innocent,1980-09-30,Nigeria,175,190,198,198,,198,71.82,B,Raw,Open,1
M,72,2020-02-06,Emmanuel Nii Tettey Oku,1990-10-13,Ghana,-160,160,165,165,,165,70.7,B,Raw,Open,5
M,72,2020-02-06,Mahmoud Attia,1981-08-12,Egypt,185,190,193,193,,193,69.87,B,Raw,Open,2
M,72,2020-02-06,Cosme Akpovi,1983-09-27,Benin,135,145,150,150,,150,70.32,B,Raw,Open,6
M,72,2020-02-06,Anthony Azunna Ulonnam,1993-04-10,Cameroon,,,,,,,,B,Raw,Open,NS
M,72,2020-02-06,Brima Nelson Domawa,1999-03-01,Nigeria,,,,,,,,B,Raw,Open,NS
M,72,2020-02-06,Aucun Manga Belinga,1969-10-24,Cameroon,,,,,,,,B,Raw,Open,NS
M,80,2020-02-06,Mohamed Sobhy Shaaban Elelfat,1979-06-25,Egypt,211,-221,-221,211,,211,79.6,B,Raw,Open,1
M,80,2020-02-06,Matteo Cattini,1984-07-17,Italy,-167,167,172,172,,172,78.15,B,Raw,Open,5
M,80,2020-02-06,Rahman Honore Faihoun,1983-02-28,Benin,-120,120,-130,120,,120,72.85,B,Raw,Open,9
M,80,2020-02-06,Ikechukwu Christian Obichukwu,1993-02-03,Nigeria,180,200,-211,200,,200,74.3,B,Raw,Open,2
M,80,2020-02-06,Oscar Ernest Makoube Moussima,1981-06-18,Cameroon,166,-169,-170,166,,166,79.22,B,Raw,Open,6
M,80,2020-02-06,Musa Yusuf,2001-04-22,Nigeria,120,-130,-135,120,,120,76.81,B,Raw,Open,10
M,80,2020-02-06,Rapheal Obodai Square,1976-06-12,Ghana,-90,-90,-95,,,,73.04,B,Raw,Open,DQ
M,80,2020-02-06,Ailton Bento de Souza,1985-03-07,Brazil,183,-189,189,189,,189,78.91,B,Raw,Open,3
M,80,2020-02-06,Denis Raiul,1992-01-12,Moldova,150,155,-164,155,,155,78.72,B,Raw,Open,7
M,80,2020-02-06,Idris Rilwanu,2002-12-12,Nigeria,120,-130,-132,120,,120,78.02,B,Raw,Open,11
M,80,2020-02-06,Harrison Dzanku,1982-09-20,Ghana,-143,-143,-143,,,,77,B,Raw,Open,DQ
M,80,2020-02-06,Tolu-Lope Owolabi Taiwo,1986-04-09,Nigeria,170,177,184,184,,184,79.22,B,Raw,Open,4
M,80,2020-02-06,Nasir Abubakar,2001-03-20,Nigeria,-130,130,-140,130,,130,73.15,B,Raw,Open,8
M,80,2020-02-06,Estevao Sa,1987-02-20,Guinea-Bissau,90,-95,-97,90,,90,79.52,B,Raw,Open,12
M,80,2020-02-06,Wale Kadiri,1978-05-14,Nigeria,,,,,,,,B,Raw,Open,NS
M,88,2020-02-07,Ifeanyi Chinonso Nnajiofor,1973-01-03,Nigeria,-175,-176,-187,,,,82.57,B,Raw,Open,DQ
M,88,2020-02-07,Ahmad Razm Azar,1992-03-02,Georgia,187,-192,-195,187,,187,80.49,B,Raw,Open,3
M,88,2020-02-07,Baridoo Saviour,2001-10-16,Nigeria,95,102,107,107,,107,83.86,B,Raw,Open,7
M,88,2020-02-07,Jean Aguedia,1981-05-05,Cameroon,-125,-125,-125,,,,83.61,B,Raw,Open,DQ
M,88,2020-02-07,Hany Abdelhady,1980-05-19,Egypt,160,175,-190,175,,175,87.17,B,Raw,Open,4
M,88,2020-02-07,Evanio Rodrigues da Silva,1984-09-02,Brazil,190,-195,196,196,,196,81.75,B,Raw,Open,1
M,88,2020-02-07,Abdulrraziq Albaebaa,1974-01-20,Libya,140,150,-153,150,,150,82.72,B,Raw,Open,5
M,88,2020-02-07,Wilson Mathias Monday,1985-05-05,Nigeria,185,195,-201,195,,195,81.63,B,Raw,Open,2
M,88,2020-02-07,Frank Yaw Fudzi,1973-03-01,Ghana,140,145,-150,145,,145,85.92,B,Raw,Open,6
M,88,2020-02-07,Opeyemi Jegede,1983-07-01,Nigeria,,,,,,,,B,Raw,Open,NS
M,97,2020-02-07,Abdulazeez Ibrahim,1978-08-10,Nigeria,200,210,-218,210,,210,94.03,B,Raw,Open,1
M,97,2020-02-07,Mohamed Elsayed Mohamed Ahmed,1982-01-18,Egypt,210,-217,-218,210,,210,96.74,B,Raw,Open,2
M,97,2020-02-07,Adeniyi Omopekunola,1983-01-05,Nigeria,140,150,160,160,,160,88.54,B,Raw,Open,3
M,97,2020-02-07,Emmanuel Nuhu,1975-12-25,Nigeria,,,,,,,,B,Raw,Open,NS
M,107,2020-02-07,Mateus de Assis Silva,1997-05-27,Brazil,196,-208,211,211,,211,105.82,B,Raw,Open,1
M,107,2020-02-07,Akaki Jintcharadze,1987-07-19,Georgia,190,-201,201,201,,201,106.24,B,Raw,Open,2
M,107,2020-02-07,Daniel George Omogbai,1982-07-20,Nigeria,190,-207,-207,190,,190,100.89,B,Raw,Open,3
M,107,2020-02-07,Musa Muhammed,1981-06-29,Nigeria,140,150,-160,150,,150,101.8,B,Raw,Open,4
M,107+,2020-02-07,Uhunoma Emwiobaiwi,1995-03-26,Nigeria,200,210,211,211,,211,108.84,B,Raw,Open,1
M,107+,2020-02-07,Clement Bello,1979-12-14,Nigeria,145,-160,163,163,,163,124.76,B,Raw,Open,5
M,107+,2020-02-07,Iago Gorgodze,1976-10-19,Georgia,190,-198,201,201,,201,109.48,B,Raw,Open,2
M,107+,2020-02-07,Modou Gamo,1986-06-22,The Gambia,125,130,135,135,,135,107.76,B,Raw,Open,6
M,107+,2020-02-07,Giorgi Latsabidze,1987-05-27,Georgia,-170,170,-175,170,,170,127.3,B,Raw,Open,3
M,107+,2020-02-07,Tahiru Haruna,1993-10-14,Ghana,170,-175,-176,170,,170,131.57,B,Raw,Open,4
F,41,2020-02-05,Esther Nworgu,2002-12-01,Nigeria,95,-100,101,101,,101,39.87,B,Raw,Open,1
F,41,2020-02-05,Hellen Kariuki,1992-04-15,Kenya,90,-91,92,92,,92,40.51,B,Raw,Open,2
F,41,2020-02-05,Akissi Michelle Kouadio,1979-08-01,Ivory Coast,-60,-60,-60,,,,39.77,B,Raw,Open,DQ
F,41,2020-02-05,Lara Aparecida de Lima,2003-04-25,Brazil,76,-86,-86,76,,76,39.5,B,Raw,Open,3
F,41,2020-02-05,Feyisetan Bakare,1989-08-20,Nigeria,-75,-75,-75,,,,39.95,B,Raw,Open,DQ
F,41,2020-02-05,Amarachi Okoronkwo,2004-06-15,Nigeria,-75,75,-80,75,,75,40.25,B,Raw,Open,4
F,41,2020-02-05,Ruth Dodo,1983-07-02,Nigeria,,,,,,,,B,Raw,Open,NS
F,45,2020-02-05,Latifat Omolola Tijani,1981-11-08,Nigeria,105,110,112,112,,112,44.57,B,Raw,Open,1
F,45,2020-02-05,Loveth Abokin,2000-12-14,Nigeria,-100,100,-105,100,,100,42.12,B,Raw,Open,2
F,45,2020-02-05,Seun Solomon,2001-07-24,Nigeria,90,91,96,96,,96,43.3,B,Raw,Open,3
F,50,2020-02-05,Rukayat Ajiboye,2000-12-31,Nigeria,95,105,-110,105,,105,47.48,B,Raw,Open,2
F,50,2020-02-05,Franca Chikaodiri Anigbogu,1985-08-25,Nigeria,-105,105,-110,105,,105,49.43,B,Raw,Open,3
F,50,2020-02-05,Rehab Ahmed,1991-03-02,Egypt,111,115,-118,115,,115,48.69,B,Raw,Open,1
F,50,2020-02-05,Oluwatoyosi Osewa,1990-06-20,Nigeria,,,,,,,,B,Raw,Open,NS
F,50,2020-02-05,Mercy Nduati,1985-01-06,Kenya,,,,,,,,B,Raw,Open,NS
F,55,2020-02-05,Onyinyechi Gift Mark,2001-07-05,Nigeria,-120,120,125,125,127,125,53.55,B,Raw,Open,1
F,55,2020-02-05,Ifeoluwa Alake,2000-05-08,Nigeria,80,85,-93,85,,85,54.79,B,Raw,Open,2
F,55,2020-02-05,Temitope Oladele,2000-11-04,Nigeria,-90,-90,-90,,,,53.35,B,Raw,Open,DQ
F,55,2020-02-05,Chiamaka Ani,2002-10-20,Nigeria,75,80,-85,80,,80,53.21,B,Raw,Open,3
F,55,2020-02-05,Ranti Oluwasegun,1998-10-27,Nigeria,-75,-75,,,,,54.18,B,Raw,Open,DQ
F,61,2020-02-05,Nwaeje Onyedikachi,2002-07-30,Nigeria,-75,-75,-75,,,,59.16,B,Raw,Open,DQ
F,61,2020-02-05,Lucy Ogechukwu Ejike,1977-10-16,Nigeria,125,135,-140,135,,135,60.02,B,Raw,Open,1
F,61,2020-02-05,Fatma Korany,2000-07-01,Egypt,-111,111,116,116,,116,59.24,B,Raw,Open,2
F,61,2020-02-05,Josephine Ebruguoma,2001-09-09,Nigeria,-80,-80,-80,,,,57.95,B,Raw,Open,DQ
F,61,2020-02-05,Maria Otuodichi Komo,1990-03-06,Nigeria,100,-105,-110,100,,100,60.48,B,Raw,Open,3
F,67,2020-02-05,Victoria Ekele,2000-04-02,Nigeria,-80,-80,-80,,,,63.31,B,Raw,Open,DQ
F,67,2020-02-05,Mujidat Olaitan Ibrahim,1986-02-14,Nigeria,120,125,-130,125,,125,64.7,B,Raw,Open,1
F,67,2020-02-05,Patricia Nyamekye,2003-11-22,Ghana,55,-60,-60,55,,55,64.86,B,Raw,Open,5
F,67,2020-02-05,Bintu Seidu,1982-06-12,Ghana,-30,-30,-30,,,,64.14,B,Raw,Open,DQ
F,67,2020-02-05,Fatma Omar,1973-10-17,Egypt,-115,115,121,121,,121,63.85,B,Raw,Open,2
F,67,2020-02-05,Vida Antwi,1982-06-07,Ghana,-80,-80,-85,,,,64.76,B,Raw,Open,DQ
F,67,2020-02-05,Chinwendu Joy Oriemezie,1992-05-19,Nigeria,117,121,-125,121,,121,66.23,B,Raw,Open,3
F,67,2020-02-05,Hope Imuetinyanosa Osagie,1999-12-15,Nigeria,-75,-75,-75,,,,65.3,B,Raw,Open,DQ
F,67,2020-02-05,Victoria Okenwa,2001-10-06,Nigeria,70,-75,75,75,,75,61.38,B,Raw,Open,4
F,73,2020-02-06,Mariana D'Andrea,1998-02-12,Brazil,124,-127,-132,124,,124,69.47,B,Raw,Open,3
F,73,2020-02-06,Virginia Azu,1989-05-27,Nigeria,105,118,-123,118,,118,71.22,B,Raw,Open,4
F,73,2020-02-06,Kafila Almaruf,1994-04-18,Nigeria,-127,-130,-132,,,,69.96,B,Raw,Open,DQ
F,73,2020-02-06,Olorunwa Oluwasola,2001-03-23,Nigeria,55,-65,65,65,,65,70.91,B,Raw,Open,5
F,73,2020-02-06,Paulina Ebere Okpala,1989-03-28,Nigeria,126,132,-134,132,,132,71.08,B,Raw,Open,1
F,73,2020-02-06,Amal Mahmoud Hanafy Mahmoud,1978-10-21,Egypt,118,122,125,125,,125,69.63,B,Raw,Open,2
F,79,2020-02-06,Joyce Wambui Njuguna,1976-04-17,Kenya,95,-98,-100,95,,95,76.73,B,Raw,Open,2
F,79,2020-02-06,Larisa Marinenkova,1969-03-07,Moldova,85,-90,-92,85,,85,74.88,B,Raw,Open,3
F,79,2020-02-06,Omotola Eniola Falodun,1990-05-30,Nigeria,100,110,115,115,,115,75.57,B,Raw,Open,1
F,79,2020-02-06,Blessing Ibeh,2000-04-16,Nigeria,,,,,,,,B,Raw,Open,NS
F,79,2020-02-06,Bose Omolayo,1989-02-01,Nigeria,,,,,,,,B,Raw,Open,NS
F,86,2020-02-07,Alice Folashade Oluwafemiayo,1985-03-11,Nigeria,140,142,144,144,,144,85.5,B,Raw,Open,1
F,86,2020-02-07,Anuoluwapo Akinola,1988-12-25,Nigeria,115,120,-125,120,,120,80.01,B,Raw,Open,2
F,86,2020-02-07,Blessing Orienma Nwakanma,1978-04-14,Nigeria,-120,-121,-123,,,,84.43,B,Raw,Open,DQ
F,86,2020-02-07,Chinwendu Onyemachi,2000-10-26,Nigeria,75,85,90,90,,90,79.82,B,Raw,Open,3
F,86,2020-02-07,Tayana Medeiros,1993-03-14,Brazil,-116,-116,-116,,,,85.46,B,Raw,Open,DQ
F,86+,2020-02-07,Nadia Ali,1974-07-27,Egypt,135,141,-144,141,,141,108.85,B,Raw,Open,2
F,86+,2020-02-07,Randa Mahmoud,1987-08-20,Egypt,127,-133,133,133,,133,90.99,B,Raw,Open,3
F,86+,2020-02-07,Precious Orji,1979-04-08,Nigeria,-117,117,-122,117,,117,125.93,B,Raw,Open,4
F,86+,2020-02-07,Loveline Adaure Obiji,1990-09-11,Nigeria,140,145,150,150,,150,105.85,B,Raw,Open,1
F,86+,2020-02-07,Anuoluwapo Akoleaje,2000-12-29,Nigeria,90,95,-100,95,,95,99.02,B,Raw,Open,5
F,86+,2020-02-07,Esther Akpan,1985-10-25,Nigeria,,,,,,,,B,Raw,Open,NS
