Division,WeightClassKg,Place,Name,Team,BodyweightKg,Best3SquatKg,Best3BenchKg,Best3DeadliftKg,TotalKg,Equipment,Event,Sex,BirthDate
Girls,44.23,1,Alissa Talley,Elkhart,43.64,90.72,40.82,102.06,233.6,Single-ply,SBD,F,
Girls,44.23,2,Riane Maher,Aubrey,43.73,86.18,40.82,92.99,219.99,Single-ply,SBD,F,
Girls,44.23,3,Diana Alvarez,Paris,40.28,79.38,40.82,83.91,204.12,Single-ply,SBD,F,
Girls,47.85,1,Jozalyn Sewell,Blooming Grove,47.72,131.54,74.84,120.2,326.59,Single-ply,SBD,F,
Girls,47.85,2,Ja'Miyah Burton,Frankston,47.72,111.13,49.9,122.47,283.5,Single-ply,SBD,F,
Girls,47.85,3,Heather Hough,Aubrey,47.26,99.79,61.23,102.06,263.08,Single-ply,SBD,F,
Girls,47.85,4,Diana Farfan,Paris,46.27,92.99,47.63,88.45,229.06,Single-ply,SBD,F,
Girls,47.85,5,Graace Little,Malakoff,46.81,90.72,43.09,95.25,229.06,Single-ply,SBD,F,
Girls,47.85,6,Tiffany Pace,Ferris,47.72,95.25,38.56,92.99,226.8,Single-ply,SBD,F,
Girls,47.85,7,Nancy Diaz,Ferris,47.81,83.91,31.75,97.52,213.19,Single-ply,SBD,F,
Girls,47.85,8,Jessi Maher,Aubrey,47.72,77.11,38.56,88.45,204.12,Single-ply,SBD,F,
Girls,47.85,9,Myldred Viguerias,Kemp,47.08,77.11,38.56,86.18,201.85,Single-ply,SBD,F,
Girls,47.85,10,Breeana Echols,Mabank,45.36,68.04,38.56,81.65,188.24,Single-ply,SBD,F,
Girls,51.94,1,Tk Marshall,Paris,49.8,113.4,68.04,120.2,301.64,Single-ply,SBD,F,
Girls,51.94,2,MiKesha Shorters,Paris,51.53,120.2,52.16,111.13,283.5,Single-ply,SBD,F,
Girls,51.94,3,Cameran Bilderback,Aubrey,50.35,111.13,63.5,106.59,281.23,Single-ply,SBD,F,
Girls,51.94,4,Kaliegh Ball,Malakoff,51.71,104.33,52.16,111.13,267.62,Single-ply,SBD,F,
Girls,51.94,5,Callie Selman,Frankston,50.89,104.33,54.43,106.59,265.35,Single-ply,SBD,F,
Girls,51.94,6,Daisy Quinn,Kerens,51.44,99.79,49.9,115.67,265.35,Single-ply,SBD,F,
Girls,51.94,7,Sydney Blankenship,Aubrey,50.8,99.79,52.16,102.06,254.01,Single-ply,SBD,F,
Girls,51.94,8,Jaycee Eastman,Troup,51.53,95.25,45.36,108.86,249.48,Single-ply,SBD,F,
Girls,51.94,9,Tori Weatherford,Paris,51.89,97.52,52.16,99.79,249.48,Single-ply,SBD,F,
Girls,51.94,10,Cassidy Shofner,Tatum,51.8,102.06,40.82,102.06,244.94,Single-ply,SBD,F,
Girls,51.94,11,Riliegh White,Fairfield,51.89,99.79,47.63,83.91,231.33,Single-ply,SBD,F,
Girls,51.94,12,Mia Bacy,Mabank,51.26,97.52,45.36,86.18,229.06,Single-ply,SBD,F,
Girls,51.94,13,Aaliyah Holifield,Ferris,50.35,79.38,34.02,77.11,190.51,Single-ply,SBD,F,
Girls,51.94,14,Haley Crook,Grapeland,48.9,70.31,27.22,83.91,181.44,Single-ply,SBD,F,
Girls,56.02,1,Esmeralda Almaguer,Kerens,54.52,108.86,65.77,122.47,297.1,Single-ply,SBD,F,
Girls,56.02,2,Tristan Dykes,Brownsboro,52.53,113.4,74.84,106.59,294.84,Single-ply,SBD,F,
Girls,56.02,3,MaShayla Owens,Palestine Westwood,55.07,122.47,52.16,117.93,292.57,Single-ply,SBD,F,
Girls,56.02,4,Jordan Stephens #1,Elkhart,55.52,104.33,63.5,120.2,288.03,Single-ply,SBD,F,
Girls,56.02,5,Dana McAlister,Aubrey,54.34,115.67,54.43,115.67,285.76,Single-ply,SBD,F,
Girls,56.02,6,Sydney Wright,Aubrey,55.07,111.13,63.5,111.13,285.76,Single-ply,SBD,F,
Girls,56.02,7,Ellie Grissett,Fairfield,55.79,111.13,56.7,99.79,267.62,Single-ply,SBD,F,
Girls,56.02,8,Olivia Sullivan,Mabank,52.62,102.06,38.56,113.4,254.01,Single-ply,SBD,F,
Girls,56.02,9,Anna Dominey,Dawson,52.71,90.72,43.09,113.4,247.21,Single-ply,SBD,F,
Girls,56.02,10,Sam Carter,Mabank,52.62,111.13,38.56,86.18,235.87,Single-ply,SBD,F,
Girls,56.02,11,Abigale Elkin,Blooming Grove,55.25,95.25,45.36,95.25,235.87,Single-ply,SBD,F,
Girls,56.02,12,Ruby Aguirre,Elkhart,55.61,92.99,38.56,90.72,222.26,Single-ply,SBD,F,
Girls,56.02,13,Grace Salmon,Elkhart,52.62,61.23,20.41,63.5,145.15,Single-ply,SBD,F,
Girls,60.1,1,Enchantra Roberson,Paris,57.79,147.42,68.04,154.22,369.68,Single-ply,SBD,F,
Girls,60.1,2,Chloe Ives,Elkhart,59.51,154.22,70.31,138.35,362.87,Single-ply,SBD,F,
Girls,60.1,3,Ellie Davis,Aubrey,59.69,124.74,70.31,136.08,331.12,Single-ply,SBD,F,
Girls,60.1,4,Daisy Garcia,Dawson,59.78,115.67,61.23,129.27,306.17,Single-ply,SBD,F,
Girls,60.1,5,Addison Dockweiler,Palestine Westwood,59.06,131.54,61.23,104.33,297.1,Single-ply,SBD,F,
Girls,60.1,6,Libby Thornburgh,Gladewater Sabine,58.97,115.67,72.57,104.33,292.57,Single-ply,SBD,F,
Girls,60.1,7,Annisa Armant,Waxahachie Life,58.6,120.2,38.56,122.47,281.23,Single-ply,SBD,F,
Girls,60.1,8,Natazsia Ward,Dawson,59.87,108.86,56.7,115.67,281.23,Single-ply,SBD,F,
Girls,60.1,9,Skylar Coursey,Paris,58.33,111.13,63.5,102.06,276.69,Single-ply,SBD,F,
Girls,60.1,10,Kayla Moore,Elkhart,57.52,102.06,63.5,102.06,267.62,Single-ply,SBD,F,
Girls,60.1,11,Payten Nolen,Mabank,58.06,108.86,58.97,95.25,263.08,Single-ply,SBD,F,
Girls,60.1,12,Jalie Romo,Kemp,57.52,99.79,49.9,102.06,251.74,Single-ply,SBD,F,
Girls,60.1,13,Jenna Ball,Aubrey,58.15,83.91,68.04,99.79,251.74,Single-ply,SBD,F,
Girls,60.1,14,Allie Elkin,Blooming Grove,59.06,102.06,38.56,99.79,240.4,Single-ply,SBD,F,
Girls,60.1,15,Rynna Bonner,Fairfield,59.96,99.79,43.09,95.25,238.14,Single-ply,SBD,F,
Girls,60.1,16,Samantha Ormsby,Aubrey,57.15,81.65,47.63,99.79,229.06,Single-ply,SBD,F,
Girls,60.1,17,Calla Childers,Fairfield,59.87,83.91,40.82,102.06,226.8,Single-ply,SBD,F,
Girls,60.1,18,Mallorie Friday,Elkhart,59.6,86.18,38.56,90.72,215.46,Single-ply,SBD,F,
Girls,60.1,19,Caitlyn Chapman,Grapeland,58.97,81.65,31.75,88.45,201.85,Single-ply,SBD,F,
Girls,67.36,1,Madi Isaacs,Fairfield,63.23,158.76,81.65,151.95,392.36,Single-ply,SBD,F,
Girls,67.36,2,Lauren Baker,Mabank,63.5,136.08,72.57,133.81,342.46,Single-ply,SBD,F,
Girls,67.36,3,Haley Lee,Brownsboro,62.6,131.54,79.38,127.01,337.93,Single-ply,SBD,F,
Girls,67.36,4,Arrana Gonzalez,Elkhart,64.86,140.61,61.23,129.27,331.12,Single-ply,SBD,F,
Girls,67.36,5,Tara Wells,Troup,65.14,145.15,54.43,122.47,322.05,Single-ply,SBD,F,
Girls,67.36,6,Makensy Isaacs,Fairfield,67.13,129.27,61.23,131.54,322.05,Single-ply,SBD,F,
Girls,67.36,7,Lexi Vestal,Tatum,66.95,129.27,54.43,122.47,306.17,Single-ply,SBD,F,
Girls,67.36,8,Kie Burns,Malakoff,64.86,127.01,58.97,111.13,297.1,Single-ply,SBD,F,
Girls,67.36,9,Barbara Valencia,Mabank,65.32,122.47,52.16,117.93,292.57,Single-ply,SBD,F,
Girls,67.36,10,Lauren Hall,Fairfield,66.41,117.93,49.9,117.93,285.76,Single-ply,SBD,F,
Girls,67.36,11,Kinley Haas,Palestine Westwood,66.5,120.2,47.63,111.13,278.96,Single-ply,SBD,F,
Girls,67.36,12,Trinity Hawkins,Brownsboro,62.6,99.79,68.04,108.86,276.69,Single-ply,SBD,F,
Girls,67.36,13,Kellie Joe Richardson,Fairfield,64.59,115.67,49.9,104.33,269.89,Single-ply,SBD,F,
Girls,67.36,14,Bailey Acreman,Fairfield,65.41,95.25,52.16,115.67,263.08,Single-ply,SBD,F,
Girls,67.36,15,Kendall Lyon,Mabank,63.5,86.18,43.09,104.33,233.6,Single-ply,SBD,F,
Girls,67.36,16,Ariah Tave,Gilmer,67.22,117.93,56.7,,174.63,Single-ply,SB,F,
Girls,67.36,DQ,Claire Barham,Blooming Grove,65.68,,,,,Single-ply,SBD,F,
Girls,75.07,1,Bela Herrea,Aubrey,70.49,161.03,65.77,158.76,385.55,Single-ply,SBD,F,
Girls,75.07,2,Daeja Harris,Fairfield,70.94,154.22,72.57,136.08,362.87,Single-ply,SBD,F,
Girls,75.07,3,Mae Lewis,Brownsboro,72.3,142.88,70.31,138.35,351.53,Single-ply,SBD,F,
Girls,75.07,4,Mi'Nea Williams,Paris,74.66,151.95,56.7,140.61,349.27,Single-ply,SBD,F,
Girls,75.07,5,Cheyenne Rhea,Blooming Grove,73.03,129.27,77.11,124.74,331.12,Single-ply,SBD,F,
Girls,75.07,5,Chesley Kirkland,Mabank,68.04,145.15,61.23,136.08,342.46,Single-ply,SBD,F,
Girls,75.07,6,Emily Forman,Kerens,73.48,124.74,74.84,142.88,342.46,Single-ply,SBD,F,
Girls,75.07,7,Kamren Moore,Palestine Westwood,71.67,133.81,68.04,133.81,335.66,Single-ply,SBD,F,
Girls,75.07,8,Sydny Blanchard,Kemp,72.76,133.81,70.31,131.54,335.66,Single-ply,SBD,F,
Girls,75.07,9,Savannah Ellis,Fairfield,74.03,133.81,68.04,108.86,310.71,Single-ply,SBD,F,
Girls,75.07,10,Abby Smith,Beckville,72.76,113.4,49.9,142.88,306.17,Single-ply,SBD,F,
Girls,75.07,11,Kianna Williams,Malakoff,73.75,127.01,65.77,106.59,299.37,Single-ply,SBD,F,
Girls,75.07,12,Georgia Green,Aubrey,74.39,106.59,70.31,113.4,290.3,Single-ply,SBD,F,
Girls,75.07,13,Paola Fuentes,Blooming Grove,73.48,106.59,61.23,117.93,285.76,Single-ply,SBD,F,
Girls,75.07,14,Diana Castaneda,Teague,69.67,115.67,56.7,111.13,283.5,Single-ply,SBD,F,
Girls,75.07,15,Amaya Shanks,Waxahachie Life,69.31,111.13,49.9,117.93,278.96,Single-ply,SBD,F,
Girls,75.07,16,Chasidy Starn,Fairfield,71.4,113.4,47.63,117.93,278.96,Single-ply,SBD,F,
Girls,75.07,17,Ava Fink,Aubrey,69.4,99.79,56.7,108.86,265.35,Single-ply,SBD,F,
Girls,75.07,18,Savanna Rhea,Blooming Grove,67.59,106.59,49.9,102.06,258.55,Single-ply,SBD,F,
Girls,75.07,19,Lauren Simpson,Elkhart,70.85,102.06,49.9,106.59,258.55,Single-ply,SBD,F,
Girls,75.07,20,Jimena Martinez,Kemp,69.13,108.86,43.09,104.33,256.28,Single-ply,SBD,F,
Girls,75.07,21,Gracee Morris,Mabank,68.04,68.04,40.82,79.38,188.24,Single-ply,SBD,F,
Girls,75.07,DQ,Reyna Magana,Blooming Grove,69.94,90.72,49.9,,,Single-ply,SBD,F,
Girls,82.33,1,Rayn Hayden,Paris,78.93,149.69,79.38,161.03,390.09,Single-ply,SBD,F,
Girls,82.33,2,Natelie Jones,Frankston,78.65,145.15,74.84,142.88,362.87,Single-ply,SBD,F,
Girls,82.33,3,Jaidah Franklin,Paris,76.48,136.08,68.04,149.69,353.8,Single-ply,SBD,F,
Girls,82.33,4,Sailor-Moon Nguyen,Frankston,78.2,133.81,77.11,129.27,340.19,Single-ply,SBD,F,
Girls,82.33,6,Guadalupe Garcia #1,Eustace,75.34,138.35,58.97,131.54,328.85,Single-ply,SBD,F,
Girls,82.33,7,Alexis Shelton,Troup,76.93,136.08,68.04,122.47,326.59,Single-ply,SBD,F,
Girls,82.33,8,Katie Crews,Malakoff,78.65,122.47,68.04,124.74,315.25,Single-ply,SBD,F,
Girls,82.33,9,Hailey Woods,Mabank,77.11,120.2,58.97,115.67,294.84,Single-ply,SBD,F,
Girls,82.33,10,Vicky Romo,Eustace,80.1,117.93,68.04,108.86,294.84,Single-ply,SBD,F,
Girls,82.33,11,Maddi Griffith,Mabank,81.19,111.13,68.04,115.67,294.84,Single-ply,SBD,F,
Girls,82.33,12,Jasmine Altamirano,Aubrey,77.47,104.33,65.77,115.67,285.76,Single-ply,SBD,F,
Girls,82.33,13,Brooke Smith,Mabank,75.3,120.2,56.7,104.33,281.23,Single-ply,SBD,F,
Girls,82.33,14,Zyara Harrison,Ferris,78.74,108.86,52.16,113.4,274.42,Single-ply,SBD,F,
Girls,82.33,15,Kylie Montgomery,Aubrey,76.66,97.52,58.97,102.06,258.55,Single-ply,SBD,F,
Girls,82.33,16,Savannah Torres,Aubrey,79.65,102.06,54.43,102.06,258.55,Single-ply,SBD,F,
Girls,82.33,17,Lindsey Parker,Brownsboro,77.93,104.33,61.23,90.72,256.28,Single-ply,SBD,F,
Girls,82.33,18,Kylie Clamon,Mabank,77.11,113.4,47.63,86.18,247.21,Single-ply,SBD,F,
Girls,90.04,1,Tylie Bruce,Fairfield,83.82,154.22,86.18,151.95,392.36,Single-ply,SBD,F,
Girls,90.04,2,Tabitha Barksdale,Waxahachie Life,87.36,136.08,88.45,156.49,381.02,Single-ply,SBD,F,
Girls,90.04,3,Raelynn Johnson,Paris,88.36,142.88,83.91,138.35,365.14,Single-ply,SBD,F,
Girls,90.04,4,Laura Walters,Mabank,86.18,149.69,65.77,127.01,342.46,Single-ply,SBD,F,
Girls,90.04,5,Jessica Hobbs #1,Gladewater Union Grove,87.36,142.88,63.5,136.08,342.46,Single-ply,SBD,F,
Girls,90.04,6,Crystal Almaguer,Kerens,83.01,124.74,72.57,140.61,337.93,Single-ply,SBD,F,
Girls,90.04,7,Miranda Hays,Kemp,86.45,145.15,63.5,129.27,337.93,Single-ply,SBD,F,
Girls,90.04,8,Stacy Perez,Grapeland,87.45,136.08,49.9,140.61,326.59,Single-ply,SBD,F,
Girls,90.04,9,Brooklyn Thompson,Teague,83.37,120.2,58.97,136.08,315.25,Single-ply,SBD,F,
Girls,90.04,10,Emma Combs,Kerens,84.46,124.74,70.31,104.33,299.37,Single-ply,SBD,F,
Girls,90.04,11,Makayla Asberny,Aubrey,83.37,97.52,58.97,113.4,269.89,Single-ply,SBD,F,
Girls,90.04,12,Haley Boehn,Grapeland,83.82,92.99,31.75,97.52,222.26,Single-ply,SBD,F,
Girls,90.04,13,Kaylee Reddy,Van,89.36,77.11,34.02,58.97,170.1,Single-ply,SBD,F,
Girls,90.04,DQ,Katherine Vega,Ferris,89.54,104.33,,,,Single-ply,SBD,F,
Girls,100.02,1,Kimberly Soto,Dawson,94.53,154.22,70.31,136.08,360.61,Single-ply,SBD,F,
Girls,100.02,2,Tatiana Jones,Fairfield,99.25,161.03,61.23,138.35,360.61,Single-ply,SBD,F,
Girls,100.02,3,Reagan Shofner,Troup,92.53,138.35,63.5,133.81,335.66,Single-ply,SBD,F,
Girls,100.02,4,Skylar McCool,Van,99.06,136.08,63.5,133.81,333.39,Single-ply,SBD,F,
Girls,100.02,5,Tayla Calico,Gladewater Sabine,93.08,149.69,68.04,113.4,331.12,Single-ply,SBD,F,
Girls,100.02,6,Shamaya Downie,Palestine Westwood,98.97,129.27,61.23,136.08,326.59,Single-ply,SBD,F,
Girls,100.02,7,Jacinda Williams,Blooming Grove,97.07,129.27,83.91,106.59,319.78,Single-ply,SBD,F,
Girls,100.02,8,Tori Sanders,Kemp,96.8,120.2,63.5,129.27,312.98,Single-ply,SBD,F,
Girls,100.02,9,Maddison Andrews,Athens,95.8,158.76,52.16,90.72,301.64,Single-ply,SBD,F,
Girls,100.02,10,Seirra Baldree,Blooming Grove,99.06,102.06,43.09,108.86,254.01,Single-ply,SBD,F,
Girls,117.71,1,Alice Billingsley,Kerens,105.23,149.69,92.99,136.08,378.75,Single-ply,SBD,F,
Girls,117.71,2,Kalyn Williams,Waxahachie Life,108.95,147.42,90.72,113.4,351.53,Single-ply,SBD,F,
Girls,117.71,3,Sydney Shiver,Paris,114.4,140.61,61.23,142.88,344.73,Single-ply,SBD,F,
Girls,117.71,4,Kaylie Turner,Paris,105.51,120.2,70.31,117.93,308.44,Single-ply,SBD,F,
Girls,117.71,5,Ashleigh Harris,Fairfield,111.77,117.93,61.23,120.2,299.37,Single-ply,SBD,F,
Girls,117.71,6,Gabby Rodriguez,Athens,102.6,95.25,38.56,99.79,233.6,Single-ply,SBD,F,
Girls,117.71+,1,Grace Moses,Gilmer,134.99,190.51,81.65,147.42,419.57,Single-ply,SBD,F,
Girls,117.71+,2,Courtney Bayer,Blooming Grove,126.92,179.17,86.18,136.08,401.43,Single-ply,SBD,F,
Girls,117.71+,3,Delanie Spakes,Kemp,118.21,147.42,86.18,133.81,367.41,Single-ply,SBD,F,
Girls,117.71+,4,Zeara Alexander,Paris,145.88,136.08,92.99,129.27,358.34,Single-ply,SBD,F,
Girls,117.71+,5,Adria Smith,Malakoff,147.51,154.22,70.31,131.54,356.07,Single-ply,SBD,F,
Girls,117.71+,6,Arionna Davis,Grapeland,133.27,158.76,72.57,104.33,335.66,Single-ply,SBD,F,
Girls,117.71+,7,Arielle Barnett,Grapeland,125.74,115.67,47.63,113.4,276.69,Single-ply,SBD,F,
