Division,WeightClassKg,Place,Name,Team,BodyweightKg,Best3SquatKg,Best3BenchKg,Best3DeadliftKg,TotalKg,Equipment,Event,Sex,BirthDate
Boys,51.71,1,Seth Hicks,Hughes Springs,51.44,115.67,68.04,106.59,290.3,Single-ply,SBD,M,
Boys,59.87,1,Kaden Barnwell,Hughes Springs,57.97,120.2,81.65,133.81,335.66,Single-ply,SBD,M,
Boys,67.13,1,Cole Heard,Beckville,66.86,113.4,77.11,136.08,326.59,Single-ply,SBD,M,
Boys,67.13,2,James Wisk,Elysian Fields,63.5,88.45,58.97,97.52,244.94,Single-ply,SBD,M,
Boys,74.84,1,Markus Gonzalez,Waskom,70.4,170.1,111.13,188.24,469.47,Single-ply,SBD,M,
Boys,74.84,2,Carlos Campos,Beckville,72.12,161.03,74.84,158.76,394.63,Single-ply,SBD,M,
Boys,74.84,3,Benji Rios,Beckville,71.67,124.74,77.11,129.27,331.12,Single-ply,SBD,M,
Boys,74.84,4,Caden Lovell,Elysian Fields,70.31,117.93,65.77,136.08,319.78,Single-ply,SBD,M,
Boys,82.1,1,Jake Murray,Hughes Springs,79.47,170.1,102.06,181.44,453.59,Single-ply,SBD,M,
Boys,82.1,2,Jacob Morgan,Elysian Fields,81.28,167.83,95.25,151.95,415.04,Single-ply,SBD,M,
Boys,82.1,3,Texan Lancaster,Hughes Springs,78.74,136.08,104.33,161.03,401.43,Single-ply,SBD,M,
Boys,82.1,4,Justice Clifton,Pittsburg,79.65,127.01,63.5,129.27,319.78,Single-ply,SBD,M,
Boys,89.81,1,Qua Baird,Hughes Springs,87.82,163.29,117.93,138.35,419.57,Single-ply,SBD,M,
Boys,99.79,1,Detrich Byrd,Waskom,93.26,174.63,127.01,201.85,503.49,Single-ply,SBD,M,
Boys,99.79,2,Cody Hargett,Elysian Fields,93.17,204.12,113.4,147.42,464.93,Single-ply,SBD,M,
Boys,109.77,1,Oscar Rodríguez,Hughes Springs,101.6,185.97,138.35,195.04,519.36,Single-ply,SBD,M,
Boys,109.77,2,Mikey Lanier,Hughes Springs,108.59,174.63,127.01,172.37,474,Single-ply,SBD,M,
Boys,109.77,3,Jay White,Pittsburg,106.14,158.76,106.59,136.08,401.43,Single-ply,SBD,M,
Boys,109.77,4,Nathan Thompson,Pittsburg,108.95,115.67,,158.76,274.42,Single-ply,SD,M,
Boys,124.74,1,Edwyn Magdaleno,Waskom,111.13,215.46,120.2,185.97,521.63,Single-ply,SBD,M,
Boys,124.74,2,Andrew Cormany,Beckville,113.4,199.58,108.86,210.92,519.36,Single-ply,SBD,M,
Boys,124.74,3,Gage Parker,Elysian Fields,120.66,204.12,133.81,174.63,512.56,Single-ply,SBD,M,
Boys,124.74,4,Randall Shivers,Beckville,118.57,185.97,102.06,167.83,455.86,Single-ply,SBD,M,
Boys,139.71,1,Laynce Welch,Waskom,129,226.8,111.13,206.38,544.31,Single-ply,SBD,M,
